Chapter 4: Distinctive Language in the 1833 Debates About the Abolition of Slavery and 1832 Reform Bill
…
most_distinctive_words_per_abolition_speaker2 <- tfidf_per_top_slavery_speaker_1833 %>%
  group_by(speaker) %>%
  filter(n > 5) %>% # <----------------  this is the only thing that's new 
  arrange(desc(tf_idf)) %>%
  mutate(rank_tf_idf = row_number()) %>%
  slice(1:15) %>% 
  ungroup() %>%
  mutate(word = reorder_within(word, n, speaker))

most_distinctive_words_per_abolition_speaker

## # A tibble: 60 × 5
##    index word                        tf_idf     n speaker       
##    <int> <fct>                        <dbl> <int> <chr>         
##  1     1 enjoyment___Mr. Buckingham  0.0025    14 Mr. Buckingham
##  2     2 political___Mr. Buckingham  0.0025     7 Mr. Buckingham
##  3     3 person___Mr. Buckingham     0.0023    13 Mr. Buckingham
##  4     4 thirdly___Mr. Buckingham    0.0021     6 Mr. Buckingham
##  5     5 buckingham___Mr. Buckingham 0.0018     5 Mr. Buckingham
##  6     6 love___Mr. Buckingham       0.0018     5 Mr. Buckingham
##  7     7 perfectly___Mr. Buckingham  0.0018     5 Mr. Buckingham
##  8     8 week___Mr. Buckingham       0.0018     5 Mr. Buckingham
##  9     9 america___Mr. Buckingham    0.0014     8 Mr. Buckingham
## 10    10 ground___Mr. Buckingham     0.0014     8 Mr. Buckingham
## # ℹ 50 more rows
…
What might we learn if we looked at Mr. Buckingham’s words in greater
detail? The visualizations above limit us to a small number of words per
speaker; but we might learn a great deal more by looking at
Mr. Buckingham’s favorite words, whether by count of by tf-idf. In fact,
the computation for this problem is cheap, so let’s do both.

mr_buckingham_slavery_debates <- tfidf_per_top_slavery_speaker_1833 %>%
  filter(speaker == "Mr. Buckingham") %>%
  arrange(desc(n)) %>%
  slice(1:40)
  
mr_buckingham_slavery_debates

## # A tibble: 40 × 6
## # Groups:   speaker [1]
##    speaker        word             n      tf   idf tf_idf
##    <chr>          <chr>        <int>   <dbl> <dbl>  <dbl>
##  1 Mr. Buckingham slave           75 0.0193      0      0
##  2 Mr. Buckingham labour          59 0.0152      0      0
##  3 Mr. Buckingham slavery         42 0.0108      0      0
##  4 Mr. Buckingham freedom         38 0.00980     0      0
##  5 Mr. Buckingham free            34 0.00877     0      0
##  6 Mr. Buckingham west            32 0.00825     0      0
##  7 Mr. Buckingham hon             26 0.00670     0      0
##  8 Mr. Buckingham time            26 0.00670     0      0
##  9 Mr. Buckingham emancipation    25 0.00645     0      0
## 10 Mr. Buckingham sugar           25 0.00645     0      0
## # ℹ 30 more rows
…
freedom_collocates_before_1833 <- slavery_debates_before_1833 %>%
  mutate(when = "1830-32") %>%
  filter(str_detect(tolower(text), "labour")) %>%
  unnest_tokens(word, text) %>%
  anti_join(stop_words) %>%
  group_by(when, word) %>%
  reframe(n = n()) %>%
  arrange(desc(n)) 

top_freedom_collocates_before_1833 <- freedom_collocates_before_1833 %>%
  top_n(30) 

top_freedom_collocates_before_1833

## # A tibble: 33 × 3
##    when    word          n
##    <chr>   <chr>     <int>
##  1 1830-32 labour       50
##  2 1830-32 slave        18
##  3 1830-32 slaves       18
##  4 1830-32 free         15
##  5 1830-32 sugar        13
##  6 1830-32 colonies     12
##  7 1830-32 west         12
##  8 1830-32 house         7
##  9 1830-32 laboured      7
## 10 1830-32 labourers     7
## # ℹ 23 more rows
…
freedom_collocates_after_1833 <- slavery_debates_after_1833 %>%
  mutate(when = "1834-36") %>%
  filter(str_detect(tolower(text), "free")) %>%
  unnest_tokens(word, text) %>%
  anti_join(stop_words) %>%
  group_by(when, word) %>%
  reframe(n = n()) %>%
  arrange(desc(n)) 

top_freedom_collocates_after_1833 <- freedom_collocates_after_1833 %>%
  top_n(30) 

top_freedom_collocates_after_1833

## # A tibble: 38 × 3
##    when    word         n
##    <chr>   <chr>    <int>
##  1 1834-36 freedom     46
##  2 1834-36 free        45
##  3 1834-36 negroes     25
##  4 1834-36 negro       15
##  5 1834-36 lord        14
##  6 1834-36 slavery     14
##  7 1834-36 noble       13
##  8 1834-36 slave       12
##  9 1834-36 act         11
## 10 1834-36 colonies    11
## # ℹ 28 more rows
…
