Chapter 4: Distinctive Language in the 1833 Debates About the Abolition of Slavery and 1832 Reform Bill
…
The bind_tf_idf() function takes three arguments. The
first two are the names of the facets of the data which are to be
assessed for how distinctive they are in relationship to each other – in
this case, word and speaker. The third
argument, n, the count of words per speaker.

# calculate the measure of how distinctive each keyword is of each speaker
tfidf_per_top_slavery_speaker_1833 <- abolition_speaker_wordcounts %>% 
  bind_tf_idf(word, speaker, n) %>% 
  arrange(desc(tf_idf))

# view the 50 first rows
head(tfidf_per_top_slavery_speaker_1833, 50)

## # A tibble: 50 × 6
## # Groups:   speaker [5]
##    speaker                word            n      tf   idf  tf_idf
##    <chr>                  <chr>       <int>   <dbl> <dbl>   <dbl>
##  1 The Duke of Wellington lordship       45 0.0125  1.61  0.0201 
##  2 The Duke of Wellington earl           30 0.00831 1.61  0.0134 
##  3 Mr. Fowell Buxton      wage           40 0.0116  0.511 0.00594
##  4 The Duke of Wellington duke           12 0.00332 1.61  0.00535
##  5 The Duke of Wellington hire           12 0.00332 1.61  0.00535
##  6 Mr. Stanley            rashness        4 0.00293 1.61  0.00472
##  7 Mr. Stanley            baronet         7 0.00513 0.916 0.00470
##  8 Mr. Stanley            essex           6 0.00440 0.916 0.00403
##  9 Sir Robert Peel        imperial        7 0.00224 1.61  0.00361
## 10 Mr. Stanley            importation     3 0.00220 1.61  0.00354
## # ℹ 40 more rows
…
most_distinctive_words_per_abolition_speaker2 <- tfidf_per_top_slavery_speaker_1833 %>%
  group_by(speaker) %>%
  filter(n > 5) %>% # <----------------  this is the only thing that's new 
  arrange(desc(tf_idf)) %>%
  mutate(rank_tf_idf = row_number()) %>%
  slice(1:15) %>% 
  ungroup() %>%
  mutate(word = reorder_within(word, n, speaker))

most_distinctive_words_per_abolition_speaker

## # A tibble: 75 × 5
##    index word                         tf_idf     n speaker       
##    <int> <fct>                         <dbl> <int> <chr>         
##  1     1 thirdly___Mr. Buckingham     0.0025     6 Mr. Buckingham
##  2     2 buckingham___Mr. Buckingham  0.0021     5 Mr. Buckingham
##  3     3 love___Mr. Buckingham        0.0021     5 Mr. Buckingham
##  4     4 week___Mr. Buckingham        0.0021     5 Mr. Buckingham
##  5     5 enjoyment___Mr. Buckingham   0.0018    14 Mr. Buckingham
##  6     6 person___Mr. Buckingham      0.0017    13 Mr. Buckingham
##  7     7 destructive___Mr. Buckingham 0.0017     4 Mr. Buckingham
##  8     8 fourthly___Mr. Buckingham    0.0017     4 Mr. Buckingham
##  9     9 grinder___Mr. Buckingham     0.0017     4 Mr. Buckingham
## 10    10 ignorance___Mr. Buckingham   0.0017     4 Mr. Buckingham
## # ℹ 65 more rows
…
freedom_collocates_before_1833 <- slavery_debates_before_1833 %>%
  mutate(when = "1830-32") %>%
  filter(str_detect(tolower(text), "labour")) %>%
  unnest_tokens(word, text) %>%
  anti_join(stop_words) %>%
  group_by(when, word) %>%
  reframe(n = n()) %>%
  arrange(desc(n)) 

top_freedom_collocates_before_1833 <- freedom_collocates_before_1833 %>%
  top_n(30) 

top_freedom_collocates_before_1833

## # A tibble: 33 × 3
##    when    word          n
##    <chr>   <chr>     <int>
##  1 1830-32 labour       50
##  2 1830-32 slave        18
##  3 1830-32 slaves       18
##  4 1830-32 free         15
##  5 1830-32 sugar        13
##  6 1830-32 colonies     12
##  7 1830-32 west         12
##  8 1830-32 house         7
##  9 1830-32 laboured      7
## 10 1830-32 labourers     7
## # ℹ 23 more rows
…
freedom_collocates_after_1833 <- slavery_debates_after_1833 %>%
  mutate(when = "1834-36") %>%
  filter(str_detect(tolower(text), "free")) %>%
  unnest_tokens(word, text) %>%
  anti_join(stop_words) %>%
  group_by(when, word) %>%
  reframe(n = n()) %>%
  arrange(desc(n)) 

top_freedom_collocates_after_1833 <- freedom_collocates_after_1833 %>%
  top_n(30) 

top_freedom_collocates_after_1833

## # A tibble: 38 × 3
##    when    word         n
##    <chr>   <chr>    <int>
##  1 1834-36 freedom     46
##  2 1834-36 free        45
##  3 1834-36 negroes     25
##  4 1834-36 negro       15
##  5 1834-36 lord        14
##  6 1834-36 slavery     14
##  7 1834-36 noble       13
##  8 1834-36 slave       12
##  9 1834-36 act         11
## 10 1834-36 colonies    11
## # ℹ 28 more rows
…
